<?xml version="1.0" encoding="utf-8"?>
<!-- Generator: Adobe Illustrator 19.1.0, SVG Export Plug-In . SVG Version: 6.00 Build 0)  -->
<svg version="1.1" id="Layer_1" xmlns="http://www.w3.org/2000/svg" xmlns:xlink="http://www.w3.org/1999/xlink" x="0px" y="0px"
	 viewBox="0 0 51.9 54" style="enable-background:new 0 0 51.9 54;" xml:space="preserve">
<style type="text/css">
	.st0{fill:#ff8212;}
</style>
<path class="st0" d="M25.5,10.9c-8.7,0-15.9,7.1-15.9,15.9s7.1,15.9,15.9,15.9s15.9-7.1,15.9-15.9S34.2,10.9,25.5,10.9z M39.9,26.8
	c0,7.9-6.4,14.4-14.4,14.4s-14.4-6.4-14.4-14.4s6.4-14.4,14.4-14.4S39.9,18.8,39.9,26.8z"/>
<path class="st0" d="M27.8,21.9c0.9-0.7,1.5-1.8,1.5-3c0-2.1-1.7-3.8-3.8-3.8c-2.1,0-3.8,1.7-3.8,3.8c0,1.2,0.6,2.3,1.5,3
	c-2.1,0.9-3.5,3-3.5,5.4v3.4l0.7,0.7H22v6.3l0.7,0.7h5.6l0.7-0.7v-6.3h1.7l0.7-0.7v-3.4C31.4,24.9,29.9,22.8,27.8,21.9z M25.5,21.2
	c-1.3,0-2.3-1-2.3-2.3s1-2.3,2.3-2.3s2.3,1,2.3,2.3S26.7,21.2,25.5,21.2z M26.3,36.9v-3.8c0-0.4-0.3-0.8-0.8-0.8
	c-0.4,0-0.8,0.3-0.8,0.8v3.8h-1.1v-5.5h3.8v5.5H26.3z M28.2,26.6c-0.4,0-0.8,0.3-0.8,0.8v2.5h-3.8v-2.4c0-0.4-0.3-0.8-0.8-0.8
	S22,27,22,27.4v2.4h-0.8v-2.5c0-2.4,1.9-4.3,4.3-4.3s4.3,1.9,4.3,4.3v2.5H29v-2.5C29,27,28.6,26.6,28.2,26.6z"/>
</svg>
