<?xml version="1.0" encoding="utf-8"?>
<!-- Generator: Adobe Illustrator 19.1.0, SVG Export Plug-In . SVG Version: 6.00 Build 0)  -->
<svg version="1.1" id="Layer_1" xmlns="http://www.w3.org/2000/svg" xmlns:xlink="http://www.w3.org/1999/xlink" x="0px" y="0px"
	 viewBox="0 0 24.5 24.3" style="enable-background:new 0 0 24.5 24.3;" xml:space="preserve">
<style type="text/css">
	.st0{fill:#010101;}
</style>
<path class="st0" d="M12.3,4.3c-4.3,0-7.9,3.5-7.9,7.9S7.9,20,12.3,20s7.9-3.5,7.9-7.9S16.6,4.3,12.3,4.3z M19.4,12.2
	c0,3.9-3.2,7.1-7.1,7.1s-7.1-3.2-7.1-7.1S8.3,5,12.3,5S19.4,8.2,19.4,12.2z"/>
<polygon class="st0" points="17.1,11.5 12.9,11.5 12.9,7.4 11.6,7.4 11.6,11.5 7.5,11.5 7.5,12.8 11.6,12.8 11.6,17 12.9,17 
	12.9,12.8 17.1,12.8 "/>
</svg>
