<svg width="208" height="108" viewBox="0 0 208 108" xmlns="http://www.w3.org/2000/svg" xmlns:xlink="http://www.w3.org/1999/xlink"><view id="jf_arrow" viewBox="180.2 54 24.5 24.3"/><svg id="Layer_1" viewBox="0 0 24.5 24.3" width="24.5" height="24.3" x="180.2" y="54"><style>

.ast0{fill:#010101}</style><path class="ast0" d="M12.3 4.3c-4.3 0-7.9 3.5-7.9 7.9S7.9 20 12.3 20s7.9-3.5 7.9-7.9-3.6-7.8-7.9-7.8zm7.1 7.9c0 3.9-3.2 7.1-7.1 7.1s-7.1-3.2-7.1-7.1S8.3 5 12.3 5s7.1 3.2 7.1 7.2z"/><path class="ast0" d="M14.9 9.8l-2.7 2.9-2.6-2.9-1 .8 3.6 4 3.7-4z"/></svg><view id="jf_arrow_green" viewBox="155.7 54 24.5 24.3"/><svg id="Layer_1" viewBox="0 0 24.5 24.3" width="24.5" height="24.3" x="155.7" y="54"><style>

.bst0{fill:#ff8212}</style><path class="bst0" d="M12.3 4.3c-4.3 0-7.9 3.5-7.9 7.9S7.9 20 12.3 20s7.9-3.5 7.9-7.9-3.6-7.8-7.9-7.8zm7.1 7.9c0 3.9-3.2 7.1-7.1 7.1s-7.1-3.2-7.1-7.1S8.3 5 12.3 5s7.1 3.2 7.1 7.2z"/><path class="bst0" d="M14.9 9.8l-2.7 2.9-2.6-2.9-1 .8 3.6 4 3.7-4z"/></svg><view id="jf_arrow_green_up" viewBox="155.7 78.3 24.5 24.3"/><svg id="Layer_1" viewBox="0 0 24.5 24.3" width="24.5" height="24.3" x="155.7" y="78.3"><style id="style3356">.cst0{fill:#ff8212}</style><g id="g3358" transform="matrix(1 0 0 -1 0 24.3)" fill="#ff8212"><path class="cst0" d="M12.3 4.3c-4.3 0-7.9 3.5-7.9 7.9S7.9 20 12.3 20s7.9-3.5 7.9-7.9-3.6-7.8-7.9-7.8zm7.1 7.9c0 3.9-3.2 7.1-7.1 7.1-3.9 0-7.1-3.2-7.1-7.1C5.2 8.3 8.3 5 12.3 5c4 0 7.1 3.2 7.1 7.2z" id="path3360"/><path class="cst0" id="polygon3362" d="M12.2 12.7L9.6 9.8l-1 .8 3.6 4 3.7-4-1-.8z"/></g></svg><view id="jf_female" viewBox="51.9 0 51.9 54"/><svg id="Layer_1" viewBox="0 0 51.9 54" width="51.9" height="54" x="51.9"><style>

.dst0{fill:#010101}</style><path class="dst0" d="M26 11.1c-8.7 0-15.9 7.1-15.9 15.9S17.2 42.9 26 42.9 41.8 35.7 41.8 27 34.7 11.1 26 11.1zM40.3 27c0 7.9-6.4 14.4-14.4 14.4S11.6 34.9 11.6 27 18 12.6 26 12.6 40.3 19.1 40.3 27z"/><path class="dst0" d="M29.5 23.2c.6-.7.9-1.6.9-2.6 0-2.3-1.9-4.2-4.2-4.2S22 18.3 22 20.6c0 1 .3 1.8.9 2.6L18.2 25h-.1l-.4.8.7 2.6.9.4 2.8-1.2-2.8 9.2.6.8h12.4l.6-.8-2.7-9 2.4 1 .9-.4.7-2.6-.4-.8-4.3-1.8zm-1 3.2v.9l2.7 8.8H21l2.6-8.7v-1.2l-.9-.6-3.1 1.4-.2-.9 4.8-1.9c.6.3 1.3.5 2 .5s1.4-.2 2-.5l4.4 1.8-.3 1-2.9-1.2-.9.6zM26.8 23c-.4.1-.8.1-1.2 0-1.1-.3-1.9-1.3-1.9-2.4 0-1.4 1.1-2.5 2.5-2.5s2.5 1.1 2.5 2.5c0 1.2-.8 2.2-1.9 2.4z"/></svg><view id="jf_female_green" viewBox="103.8 0 51.9 54"/><svg id="Layer_1" viewBox="0 0 51.9 54" width="51.9" height="54" x="103.8"><style>

.est0{fill:#ff8212}</style><path class="est0" d="M26 11.1c-8.7 0-15.9 7.1-15.9 15.9S17.2 42.9 26 42.9 41.8 35.7 41.8 27 34.7 11.1 26 11.1zM40.3 27c0 7.9-6.4 14.4-14.4 14.4S11.6 34.9 11.6 27 18 12.6 26 12.6 40.3 19.1 40.3 27z"/><path class="est0" d="M29.5 23.2c.6-.7.9-1.6.9-2.6 0-2.3-1.9-4.2-4.2-4.2S22 18.3 22 20.6c0 1 .3 1.8.9 2.6L18.2 25h-.1l-.4.8.7 2.6.9.4 2.8-1.2-2.8 9.2.6.8h12.4l.6-.8-2.7-9 2.4 1 .9-.4.7-2.6-.4-.8-4.3-1.8zm-1 3.2v.9l2.7 8.8H21l2.6-8.7v-1.2l-.9-.6-3.1 1.4-.2-.9 4.8-1.9c.6.3 1.3.5 2 .5s1.4-.2 2-.5l4.4 1.8-.3 1-2.9-1.2-.9.6zM26.8 23c-.4.1-.8.1-1.2 0-1.1-.3-1.9-1.3-1.9-2.4 0-1.4 1.1-2.5 2.5-2.5s2.5 1.1 2.5 2.5c0 1.2-.8 2.2-1.9 2.4z"/></svg><view id="jf_info" viewBox="128.3 54 24.5 24.3"/><svg id="Layer_1" viewBox="0 0 24.5 24.3" width="24.5" height="24.3" x="128.3" y="54"><style>

.fst0{fill:#010101}</style><path class="fst0" d="M12.3 4.3c-4.3 0-7.9 3.5-7.9 7.9 0 4.3 3.5 7.9 7.9 7.9s7.9-3.5 7.9-7.9c-.1-4.4-3.6-7.9-7.9-7.9zm0 2.7c.6 0 1 .5 1 1 0 .6-.4 1-1 1s-1-.4-1-1c0-.5.4-1 1-1zm1 9.3c0 .6-.5 1-1 1-.6 0-1-.5-1-1V11c0-.6.5-1 1-1 .6 0 1 .5 1 1v5.3z"/></svg><view id="jf_info_green" viewBox="103.8 78.3 24.5 24.3"/><svg id="Layer_1" viewBox="0 0 24.5 24.3" width="24.5" height="24.3" x="103.8" y="78.3"><style>

.gst0{fill:#ff8212}</style><path class="gst0" d="M12.3 4.3c-4.3 0-7.9 3.5-7.9 7.9 0 4.3 3.5 7.9 7.9 7.9s7.9-3.5 7.9-7.9c-.1-4.4-3.6-7.9-7.9-7.9zm0 2.7c.6 0 1 .5 1 1 0 .6-.4 1-1 1s-1-.4-1-1c0-.5.4-1 1-1zm1 9.3c0 .6-.5 1-1 1-.6 0-1-.5-1-1V11c0-.6.5-1 1-1 .6 0 1 .5 1 1v5.3z"/></svg><view id="jf_male" viewBox="0 54 51.9 54"/><svg id="Layer_1" viewBox="0 0 51.9 54" width="51.9" height="54" y="54"><style>

.hst0{fill:#010101}</style><path class="hst0" d="M25.5 10.9c-8.7 0-15.9 7.1-15.9 15.9s7.1 15.9 15.9 15.9 15.9-7.1 15.9-15.9-7.2-15.9-15.9-15.9zm14.4 15.9c0 7.9-6.4 14.4-14.4 14.4s-14.4-6.4-14.4-14.4 6.4-14.4 14.4-14.4 14.4 6.4 14.4 14.4z"/><path class="hst0" d="M27.8 21.9c.9-.7 1.5-1.8 1.5-3 0-2.1-1.7-3.8-3.8-3.8-2.1 0-3.8 1.7-3.8 3.8 0 1.2.6 2.3 1.5 3-2.1.9-3.5 3-3.5 5.4v3.4l.7.7H22v6.3l.7.7h5.6l.7-.7v-6.3h1.7l.7-.7v-3.4c0-2.4-1.5-4.5-3.6-5.4zm-2.3-.7c-1.3 0-2.3-1-2.3-2.3s1-2.3 2.3-2.3 2.3 1 2.3 2.3-1.1 2.3-2.3 2.3zm.8 15.7v-3.8c0-.4-.3-.8-.8-.8-.4 0-.8.3-.8.8v3.8h-1.1v-5.5h3.8v5.5h-1.1zm1.9-10.3c-.4 0-.8.3-.8.8v2.5h-3.8v-2.4c0-.4-.3-.8-.8-.8s-.8.3-.8.7v2.4h-.8v-2.5c0-2.4 1.9-4.3 4.3-4.3s4.3 1.9 4.3 4.3v2.5H29v-2.5c0-.3-.4-.7-.8-.7z"/></svg><view id="jf_male_green" viewBox="51.9 54 51.9 54"/><svg id="Layer_1" viewBox="0 0 51.9 54" width="51.9" height="54" x="51.9" y="54"><style>

.ist0{fill:#ff8212}</style><path class="ist0" d="M25.5 10.9c-8.7 0-15.9 7.1-15.9 15.9s7.1 15.9 15.9 15.9 15.9-7.1 15.9-15.9-7.2-15.9-15.9-15.9zm14.4 15.9c0 7.9-6.4 14.4-14.4 14.4s-14.4-6.4-14.4-14.4 6.4-14.4 14.4-14.4 14.4 6.4 14.4 14.4z"/><path class="ist0" d="M27.8 21.9c.9-.7 1.5-1.8 1.5-3 0-2.1-1.7-3.8-3.8-3.8-2.1 0-3.8 1.7-3.8 3.8 0 1.2.6 2.3 1.5 3-2.1.9-3.5 3-3.5 5.4v3.4l.7.7H22v6.3l.7.7h5.6l.7-.7v-6.3h1.7l.7-.7v-3.4c0-2.4-1.5-4.5-3.6-5.4zm-2.3-.7c-1.3 0-2.3-1-2.3-2.3s1-2.3 2.3-2.3 2.3 1 2.3 2.3-1.1 2.3-2.3 2.3zm.8 15.7v-3.8c0-.4-.3-.8-.8-.8-.4 0-.8.3-.8.8v3.8h-1.1v-5.5h3.8v5.5h-1.1zm1.9-10.3c-.4 0-.8.3-.8.8v2.5h-3.8v-2.4c0-.4-.3-.8-.8-.8s-.8.3-.8.7v2.4h-.8v-2.5c0-2.4 1.9-4.3 4.3-4.3s4.3 1.9 4.3 4.3v2.5H29v-2.5c0-.3-.4-.7-.8-.7z"/></svg><view id="jf_plus" viewBox="180.2 78.3 24.5 24.3"/><svg id="Layer_1" viewBox="0 0 24.5 24.3" width="24.5" height="24.3" x="180.2" y="78.3"><style>

.jst0{fill:#010101}</style><path class="jst0" d="M12.3 4.3c-4.3 0-7.9 3.5-7.9 7.9S7.9 20 12.3 20s7.9-3.5 7.9-7.9-3.6-7.8-7.9-7.8zm7.1 7.9c0 3.9-3.2 7.1-7.1 7.1s-7.1-3.2-7.1-7.1S8.3 5 12.3 5s7.1 3.2 7.1 7.2z"/><path class="jst0" d="M17.1 11.5h-4.2V7.4h-1.3v4.1H7.5v1.3h4.1V17h1.3v-4.2h4.2z"/></svg><view id="jf_plus_green" viewBox="103.8 54 24.5 24.3"/><svg id="Layer_1" viewBox="0 0 24.5 24.3" width="24.5" height="24.3" x="103.8" y="54"><style>

.kst0{fill:#ff8212}</style><path class="kst0" d="M12.3 4.3c-4.3 0-7.9 3.5-7.9 7.9S7.9 20 12.3 20s7.9-3.5 7.9-7.9-3.6-7.8-7.9-7.8zm7.1 7.9c0 3.9-3.2 7.1-7.1 7.1s-7.1-3.2-7.1-7.1S8.3 5 12.3 5s7.1 3.2 7.1 7.2z"/><path class="kst0" d="M17.1 11.5h-4.2V7.4h-1.3v4.1H7.5v1.3h4.1V17h1.3v-4.2h4.2z"/></svg><view id="jf_reject" viewBox="155.7 0 51.9 54"/><svg id="Layer_1" viewBox="0 0 51.9 54" width="51.9" height="54" x="155.7"><style>

.lst0{fill:#010101}</style><path class="lst0" d="M26 11.1c-8.7 0-15.9 7.1-15.9 15.9S17.2 42.9 26 42.9 41.8 35.7 41.8 27 34.7 11.1 26 11.1zM40.3 27c0 7.9-6.4 14.4-14.4 14.4S11.6 34.9 11.6 27 18 12.6 26 12.6 40.3 19.1 40.3 27z"/><path class="lst0" d="M33.5 20.9l-1.4-1.4-6.1 6.1-6.2-6.1-1.4 1.4 6.1 6.1-6.1 6.1 1.4 1.4 6.2-6.1 6.1 6.1 1.4-1.4-6.1-6.1z"/></svg><view id="jf_reject_green" viewBox="0 0 51.9 54"/><svg id="Layer_1" viewBox="0 0 51.9 54" width="51.9" height="54"><style>

.mst0{fill:#ff8212}</style><path class="mst0" d="M26 11.1c-8.7 0-15.9 7.1-15.9 15.9S17.2 42.9 26 42.9 41.8 35.7 41.8 27 34.7 11.1 26 11.1zM40.3 27c0 7.9-6.4 14.4-14.4 14.4S11.6 34.9 11.6 27 18 12.6 26 12.6 40.3 19.1 40.3 27z"/><path class="mst0" d="M33.5 20.9l-1.4-1.4-6.1 6.1-6.2-6.1-1.4 1.4 6.1 6.1-6.1 6.1 1.4 1.4 6.2-6.1 6.1 6.1 1.4-1.4-6.1-6.1z"/></svg></svg>