<?xml version="1.0" encoding="UTF-8" standalone="no"?>
<svg
   xmlns:dc="http://purl.org/dc/elements/1.1/"
   xmlns:cc="http://creativecommons.org/ns#"
   xmlns:rdf="http://www.w3.org/1999/02/22-rdf-syntax-ns#"
   xmlns:svg="http://www.w3.org/2000/svg"
   xmlns="http://www.w3.org/2000/svg"
   id="svg12012"
   version="1.1"
   viewBox="0 0 50.055996 50.055996"
   height="50.055996mm"
   width="50.055996mm">
  <defs
     id="defs12006">
    <clipPath
       id="clipPath14160"
       clipPathUnits="userSpaceOnUse">
      <path
         style="clip-rule:evenodd"
         id="path14162"
         d="m 1346.081,1540.24 c 11.227,-12.55 18.052,-29.12 18.052,-47.284 0,-39.182 -31.763,-70.945 -70.946,-70.945 -39.182,0 -70.945,31.763 -70.945,70.945 0,18.164 6.826,34.734 18.052,47.284 z" />
    </clipPath>
    <clipPath
       id="clipPath14166"
       clipPathUnits="userSpaceOnUse">
      <path
         id="path14168"
         d="m 1192,1054 h 986 v 554 h -986 z" />
    </clipPath>
    <clipPath
       id="clipPath14172"
       clipPathUnits="userSpaceOnUse">
      <path
         id="path14174"
         d="m 1200,1417 h 190 v 124 h -190 z" />
    </clipPath>
    <clipPath
       id="clipPath14176"
       clipPathUnits="userSpaceOnUse">
      <path
         style="clip-rule:evenodd"
         id="path14178"
         d="m 1214.993,1503.811 h 33.771 v 29.48 h -33.771 z" />
    </clipPath>
    <clipPath
       id="clipPath14180"
       clipPathUnits="userSpaceOnUse">
      <path
         id="path14182"
         d="m 1222,1422 h 143 v 119 h -143 z" />
    </clipPath>
    <clipPath
       id="clipPath14184"
       clipPathUnits="userSpaceOnUse">
      <path
         style="clip-rule:evenodd"
         id="path14186"
         d="m 1251.697,1532.902 c 0,-1.898 -1.54,-3.437 -3.437,-3.437 -1.899,0 -3.438,1.539 -3.438,3.437 0,1.899 1.539,3.437 3.438,3.437 1.897,0 3.437,-1.538 3.437,-3.437" />
    </clipPath>
    <clipPath
       id="clipPath14188"
       clipPathUnits="userSpaceOnUse">
      <path
         id="path14190"
         d="m 1222,1422 h 143 v 119 h -143 z" />
    </clipPath>
    <clipPath
       id="clipPath14192"
       clipPathUnits="userSpaceOnUse">
      <path
         style="clip-rule:evenodd"
         id="path14194"
         d="m 1219.35,1522.03 h 21.462 v 3.425 h -21.462 z" />
    </clipPath>
    <clipPath
       id="clipPath14196"
       clipPathUnits="userSpaceOnUse">
      <path
         id="path14198"
         d="m 1222,1422 h 143 v 119 h -143 z" />
    </clipPath>
    <clipPath
       id="clipPath14200"
       clipPathUnits="userSpaceOnUse">
      <path
         style="clip-rule:evenodd"
         id="path14202"
         d="m 1219.349,1516.148 h 17.529 v 3.424 h -17.529 z" />
    </clipPath>
    <clipPath
       id="clipPath14204"
       clipPathUnits="userSpaceOnUse">
      <path
         id="path14206"
         d="m 1222,1422 h 143 v 119 h -143 z" />
    </clipPath>
    <clipPath
       id="clipPath14208"
       clipPathUnits="userSpaceOnUse">
      <path
         style="clip-rule:evenodd"
         id="path14210"
         d="m 1219.35,1510.265 h 12.528 v 3.425 h -12.528 z" />
    </clipPath>
    <clipPath
       id="clipPath14212"
       clipPathUnits="userSpaceOnUse">
      <path
         id="path14214"
         d="m 1222,1422 h 143 v 119 h -143 z" />
    </clipPath>
    <clipPath
       id="clipPath14216"
       clipPathUnits="userSpaceOnUse">
      <path
         style="clip-rule:evenodd"
         id="path14218"
         d="m 1254.468,1503.307 h 33.771 v 29.481 h -33.771 z" />
    </clipPath>
    <clipPath
       id="clipPath14220"
       clipPathUnits="userSpaceOnUse">
      <path
         id="path14222"
         d="m 1222,1422 h 143 v 119 h -143 z" />
    </clipPath>
    <clipPath
       id="clipPath14224"
       clipPathUnits="userSpaceOnUse">
      <path
         style="clip-rule:evenodd"
         id="path14226"
         d="m 1291.172,1532.399 c 0,-1.899 -1.539,-3.437 -3.438,-3.437 -1.897,0 -3.437,1.538 -3.437,3.437 0,1.899 1.54,3.437 3.437,3.437 1.899,0 3.438,-1.538 3.438,-3.437" />
    </clipPath>
    <clipPath
       id="clipPath14228"
       clipPathUnits="userSpaceOnUse">
      <path
         id="path14230"
         d="m 1222,1422 h 143 v 119 h -143 z" />
    </clipPath>
    <clipPath
       id="clipPath14232"
       clipPathUnits="userSpaceOnUse">
      <path
         style="clip-rule:evenodd"
         id="path14234"
         d="m 1258.825,1521.526 h 21.462 v 3.425 h -21.462 z" />
    </clipPath>
    <clipPath
       id="clipPath14236"
       clipPathUnits="userSpaceOnUse">
      <path
         id="path14238"
         d="m 1222,1422 h 143 v 119 h -143 z" />
    </clipPath>
    <clipPath
       id="clipPath14240"
       clipPathUnits="userSpaceOnUse">
      <path
         style="clip-rule:evenodd"
         id="path14242"
         d="m 1258.824,1515.644 h 17.529 v 3.425 h -17.529 z" />
    </clipPath>
    <clipPath
       id="clipPath14244"
       clipPathUnits="userSpaceOnUse">
      <path
         id="path14246"
         d="m 1222,1422 h 143 v 119 h -143 z" />
    </clipPath>
    <clipPath
       id="clipPath14248"
       clipPathUnits="userSpaceOnUse">
      <path
         style="clip-rule:evenodd"
         id="path14250"
         d="m 1258.825,1509.762 h 12.529 v 3.425 h -12.529 z" />
    </clipPath>
    <clipPath
       id="clipPath14252"
       clipPathUnits="userSpaceOnUse">
      <path
         id="path14254"
         d="m 1222,1422 h 143 v 119 h -143 z" />
    </clipPath>
    <clipPath
       id="clipPath14256"
       clipPathUnits="userSpaceOnUse">
      <path
         style="clip-rule:evenodd"
         id="path14258"
         d="m 1293.112,1503.307 h 33.771 v 29.481 h -33.771 z" />
    </clipPath>
    <clipPath
       id="clipPath14260"
       clipPathUnits="userSpaceOnUse">
      <path
         id="path14262"
         d="m 1222,1422 h 143 v 119 h -143 z" />
    </clipPath>
    <clipPath
       id="clipPath14264"
       clipPathUnits="userSpaceOnUse">
      <path
         style="clip-rule:evenodd"
         id="path14266"
         d="m 1329.816,1532.399 c 0,-1.899 -1.539,-3.437 -3.437,-3.437 -1.898,0 -3.437,1.538 -3.437,3.437 0,1.899 1.539,3.437 3.437,3.437 1.898,0 3.437,-1.538 3.437,-3.437" />
    </clipPath>
    <clipPath
       id="clipPath14268"
       clipPathUnits="userSpaceOnUse">
      <path
         id="path14270"
         d="m 1222,1422 h 143 v 119 h -143 z" />
    </clipPath>
    <clipPath
       id="clipPath14272"
       clipPathUnits="userSpaceOnUse">
      <path
         style="clip-rule:evenodd"
         id="path14274"
         d="m 1297.468,1521.526 h 21.462 v 3.425 h -21.462 z" />
    </clipPath>
    <clipPath
       id="clipPath14276"
       clipPathUnits="userSpaceOnUse">
      <path
         id="path14278"
         d="m 1222,1422 h 143 v 119 h -143 z" />
    </clipPath>
    <clipPath
       id="clipPath14280"
       clipPathUnits="userSpaceOnUse">
      <path
         style="clip-rule:evenodd"
         id="path14282"
         d="m 1297.468,1515.644 h 17.53 v 3.425 h -17.53 z" />
    </clipPath>
    <clipPath
       id="clipPath14284"
       clipPathUnits="userSpaceOnUse">
      <path
         id="path14286"
         d="m 1222,1422 h 143 v 119 h -143 z" />
    </clipPath>
    <clipPath
       id="clipPath14288"
       clipPathUnits="userSpaceOnUse">
      <path
         style="clip-rule:evenodd"
         id="path14290"
         d="m 1297.469,1509.762 h 12.53 v 3.425 h -12.53 z" />
    </clipPath>
    <clipPath
       id="clipPath14292"
       clipPathUnits="userSpaceOnUse">
      <path
         id="path14294"
         d="m 1222,1422 h 143 v 119 h -143 z" />
    </clipPath>
    <clipPath
       id="clipPath14296"
       clipPathUnits="userSpaceOnUse">
      <path
         style="clip-rule:evenodd"
         id="path14298"
         d="m 1331.883,1502.804 h 33.77 v 29.48 h -33.77 z" />
    </clipPath>
    <clipPath
       id="clipPath14300"
       clipPathUnits="userSpaceOnUse">
      <path
         id="path14302"
         d="m 1222,1422 h 143 v 119 h -143 z" />
    </clipPath>
    <clipPath
       id="clipPath14304"
       clipPathUnits="userSpaceOnUse">
      <path
         style="clip-rule:evenodd"
         id="path14306"
         d="m 1368.587,1531.895 c 0,-1.898 -1.54,-3.437 -3.438,-3.437 -1.898,0 -3.437,1.539 -3.437,3.437 0,1.899 1.539,3.438 3.437,3.438 1.898,0 3.438,-1.539 3.438,-3.438" />
    </clipPath>
    <clipPath
       id="clipPath14308"
       clipPathUnits="userSpaceOnUse">
      <path
         id="path14310"
         d="m 1222,1422 h 143 v 119 h -143 z" />
    </clipPath>
    <clipPath
       id="clipPath14312"
       clipPathUnits="userSpaceOnUse">
      <path
         style="clip-rule:evenodd"
         id="path14314"
         d="m 1336.239,1521.024 h 21.462 v 3.424 h -21.462 z" />
    </clipPath>
    <clipPath
       id="clipPath14316"
       clipPathUnits="userSpaceOnUse">
      <path
         id="path14318"
         d="m 1222,1422 h 143 v 119 h -143 z" />
    </clipPath>
    <clipPath
       id="clipPath14320"
       clipPathUnits="userSpaceOnUse">
      <path
         style="clip-rule:evenodd"
         id="path14322"
         d="m 1336.239,1515.141 h 17.528 v 3.424 h -17.528 z" />
    </clipPath>
    <clipPath
       id="clipPath14324"
       clipPathUnits="userSpaceOnUse">
      <path
         id="path14326"
         d="m 1222,1422 h 143 v 119 h -143 z" />
    </clipPath>
    <clipPath
       id="clipPath14328"
       clipPathUnits="userSpaceOnUse">
      <path
         style="clip-rule:evenodd"
         id="path14330"
         d="m 1336.24,1509.259 h 12.528 v 3.424 h -12.528 z" />
    </clipPath>
    <clipPath
       id="clipPath14332"
       clipPathUnits="userSpaceOnUse">
      <path
         id="path14334"
         d="m 1222,1422 h 143 v 119 h -143 z" />
    </clipPath>
    <clipPath
       id="clipPath14336"
       clipPathUnits="userSpaceOnUse">
      <path
         style="clip-rule:evenodd"
         id="path14338"
         d="m 1238.528,1468.045 h 33.77 v 29.48 h -33.77 z" />
    </clipPath>
    <clipPath
       id="clipPath14340"
       clipPathUnits="userSpaceOnUse">
      <path
         id="path14342"
         d="m 1222,1422 h 143 v 119 h -143 z" />
    </clipPath>
    <clipPath
       id="clipPath14344"
       clipPathUnits="userSpaceOnUse">
      <path
         style="clip-rule:evenodd"
         id="path14346"
         d="m 1275.231,1497.136 c 0,-1.899 -1.539,-3.437 -3.437,-3.437 -1.898,0 -3.437,1.538 -3.437,3.437 0,1.899 1.539,3.437 3.437,3.437 1.898,0 3.437,-1.538 3.437,-3.437" />
    </clipPath>
    <clipPath
       id="clipPath14348"
       clipPathUnits="userSpaceOnUse">
      <path
         id="path14350"
         d="m 1222,1422 h 143 v 119 h -143 z" />
    </clipPath>
    <clipPath
       id="clipPath14352"
       clipPathUnits="userSpaceOnUse">
      <path
         style="clip-rule:evenodd"
         id="path14354"
         d="m 1242.884,1486.264 h 21.462 v 3.424 h -21.462 z" />
    </clipPath>
    <clipPath
       id="clipPath14356"
       clipPathUnits="userSpaceOnUse">
      <path
         id="path14358"
         d="m 1222,1422 h 143 v 119 h -143 z" />
    </clipPath>
    <clipPath
       id="clipPath14360"
       clipPathUnits="userSpaceOnUse">
      <path
         style="clip-rule:evenodd"
         id="path14362"
         d="m 1242.884,1480.382 h 17.529 v 3.424 h -17.529 z" />
    </clipPath>
    <clipPath
       id="clipPath14364"
       clipPathUnits="userSpaceOnUse">
      <path
         id="path14366"
         d="m 1222,1422 h 143 v 119 h -143 z" />
    </clipPath>
    <clipPath
       id="clipPath14368"
       clipPathUnits="userSpaceOnUse">
      <path
         style="clip-rule:evenodd"
         id="path14370"
         d="m 1242.884,1474.499 h 12.529 v 3.425 h -12.529 z" />
    </clipPath>
    <clipPath
       id="clipPath14372"
       clipPathUnits="userSpaceOnUse">
      <path
         id="path14374"
         d="m 1222,1422 h 143 v 119 h -143 z" />
    </clipPath>
    <clipPath
       id="clipPath14376"
       clipPathUnits="userSpaceOnUse">
      <path
         style="clip-rule:evenodd"
         id="path14378"
         d="m 1278.002,1467.541 h 33.771 v 29.48 h -33.771 z" />
    </clipPath>
    <clipPath
       id="clipPath14380"
       clipPathUnits="userSpaceOnUse">
      <path
         id="path14382"
         d="m 1222,1422 h 143 v 119 h -143 z" />
    </clipPath>
    <clipPath
       id="clipPath14384"
       clipPathUnits="userSpaceOnUse">
      <path
         style="clip-rule:evenodd"
         id="path14386"
         d="m 1314.706,1496.632 c 0,-1.897 -1.538,-3.437 -3.437,-3.437 -1.898,0 -3.437,1.54 -3.437,3.437 0,1.899 1.539,3.438 3.437,3.438 1.899,0 3.437,-1.539 3.437,-3.438" />
    </clipPath>
    <clipPath
       id="clipPath14388"
       clipPathUnits="userSpaceOnUse">
      <path
         id="path14390"
         d="m 1222,1422 h 143 v 119 h -143 z" />
    </clipPath>
    <clipPath
       id="clipPath14392"
       clipPathUnits="userSpaceOnUse">
      <path
         style="clip-rule:evenodd"
         id="path14394"
         d="m 1282.359,1485.761 h 21.462 v 3.424 h -21.462 z" />
    </clipPath>
    <clipPath
       id="clipPath14396"
       clipPathUnits="userSpaceOnUse">
      <path
         id="path14398"
         d="m 1222,1422 h 143 v 119 h -143 z" />
    </clipPath>
    <clipPath
       id="clipPath14400"
       clipPathUnits="userSpaceOnUse">
      <path
         style="clip-rule:evenodd"
         id="path14402"
         d="m 1282.359,1479.878 h 17.529 v 3.424 h -17.529 z" />
    </clipPath>
    <clipPath
       id="clipPath14404"
       clipPathUnits="userSpaceOnUse">
      <path
         id="path14406"
         d="m 1222,1422 h 143 v 119 h -143 z" />
    </clipPath>
    <clipPath
       id="clipPath14408"
       clipPathUnits="userSpaceOnUse">
      <path
         style="clip-rule:evenodd"
         id="path14410"
         d="m 1282.359,1473.996 h 12.53 v 3.424 h -12.53 z" />
    </clipPath>
    <clipPath
       id="clipPath14412"
       clipPathUnits="userSpaceOnUse">
      <path
         id="path14414"
         d="m 1222,1422 h 143 v 119 h -143 z" />
    </clipPath>
    <clipPath
       id="clipPath14416"
       clipPathUnits="userSpaceOnUse">
      <path
         style="clip-rule:evenodd"
         id="path14418"
         d="m 1316.647,1467.541 h 33.771 v 29.48 h -33.771 z" />
    </clipPath>
    <clipPath
       id="clipPath14420"
       clipPathUnits="userSpaceOnUse">
      <path
         id="path14422"
         d="m 1222,1422 h 143 v 119 h -143 z" />
    </clipPath>
    <clipPath
       id="clipPath14424"
       clipPathUnits="userSpaceOnUse">
      <path
         style="clip-rule:evenodd"
         id="path14426"
         d="m 1353.351,1496.632 c 0,-1.897 -1.539,-3.437 -3.437,-3.437 -1.898,0 -3.438,1.54 -3.438,3.437 0,1.899 1.54,3.438 3.438,3.438 1.898,0 3.437,-1.539 3.437,-3.438" />
    </clipPath>
    <clipPath
       id="clipPath14428"
       clipPathUnits="userSpaceOnUse">
      <path
         id="path14430"
         d="m 1222,1422 h 143 v 119 h -143 z" />
    </clipPath>
    <clipPath
       id="clipPath14432"
       clipPathUnits="userSpaceOnUse">
      <path
         style="clip-rule:evenodd"
         id="path14434"
         d="m 1321.003,1485.761 h 21.462 v 3.424 h -21.462 z" />
    </clipPath>
    <clipPath
       id="clipPath14436"
       clipPathUnits="userSpaceOnUse">
      <path
         id="path14438"
         d="m 1222,1422 h 143 v 119 h -143 z" />
    </clipPath>
    <clipPath
       id="clipPath14440"
       clipPathUnits="userSpaceOnUse">
      <path
         style="clip-rule:evenodd"
         id="path14442"
         d="m 1321.003,1479.878 h 17.529 v 3.424 h -17.529 z" />
    </clipPath>
    <clipPath
       id="clipPath14444"
       clipPathUnits="userSpaceOnUse">
      <path
         id="path14446"
         d="m 1222,1422 h 143 v 119 h -143 z" />
    </clipPath>
    <clipPath
       id="clipPath14448"
       clipPathUnits="userSpaceOnUse">
      <path
         style="clip-rule:evenodd"
         id="path14450"
         d="m 1321.003,1473.996 h 12.529 v 3.424 h -12.529 z" />
    </clipPath>
    <clipPath
       id="clipPath14452"
       clipPathUnits="userSpaceOnUse">
      <path
         id="path14454"
         d="m 1222,1422 h 143 v 119 h -143 z" />
    </clipPath>
    <clipPath
       id="clipPath14456"
       clipPathUnits="userSpaceOnUse">
      <path
         style="clip-rule:evenodd"
         id="path14458"
         d="m 1200.306,1467.667 h 33.771 v 29.48 h -33.771 z" />
    </clipPath>
    <clipPath
       id="clipPath14460"
       clipPathUnits="userSpaceOnUse">
      <path
         id="path14462"
         d="m 1222,1422 h 143 v 119 h -143 z" />
    </clipPath>
    <clipPath
       id="clipPath14464"
       clipPathUnits="userSpaceOnUse">
      <path
         style="clip-rule:evenodd"
         id="path14466"
         d="m 1237.01,1496.758 c 0,-1.898 -1.539,-3.437 -3.437,-3.437 -1.899,0 -3.437,1.539 -3.437,3.437 0,1.899 1.538,3.438 3.437,3.438 1.898,0 3.437,-1.539 3.437,-3.438" />
    </clipPath>
    <clipPath
       id="clipPath14468"
       clipPathUnits="userSpaceOnUse">
      <path
         id="path14470"
         d="m 1222,1422 h 143 v 119 h -143 z" />
    </clipPath>
    <clipPath
       id="clipPath14472"
       clipPathUnits="userSpaceOnUse">
      <path
         style="clip-rule:evenodd"
         id="path14474"
         d="m 1204.663,1485.887 h 21.462 v 3.424 h -21.462 z" />
    </clipPath>
    <clipPath
       id="clipPath14476"
       clipPathUnits="userSpaceOnUse">
      <path
         id="path14478"
         d="m 1222,1422 h 143 v 119 h -143 z" />
    </clipPath>
    <clipPath
       id="clipPath14480"
       clipPathUnits="userSpaceOnUse">
      <path
         style="clip-rule:evenodd"
         id="path14482"
         d="m 1204.663,1480.004 h 17.529 v 3.424 h -17.529 z" />
    </clipPath>
    <clipPath
       id="clipPath14484"
       clipPathUnits="userSpaceOnUse">
      <path
         id="path14486"
         d="m 1222,1422 h 143 v 119 h -143 z" />
    </clipPath>
    <clipPath
       id="clipPath14488"
       clipPathUnits="userSpaceOnUse">
      <path
         style="clip-rule:evenodd"
         id="path14490"
         d="m 1355.47,1468.066 h 33.77 v 29.481 h -33.77 z" />
    </clipPath>
    <clipPath
       id="clipPath14492"
       clipPathUnits="userSpaceOnUse">
      <path
         id="path14494"
         d="m 1222,1422 h 143 v 119 h -143 z" />
    </clipPath>
    <clipPath
       id="clipPath14496"
       clipPathUnits="userSpaceOnUse">
      <path
         style="clip-rule:evenodd"
         id="path14498"
         d="m 1359.826,1486.285 h 21.462 v 3.425 h -21.462 z" />
    </clipPath>
    <clipPath
       id="clipPath14500"
       clipPathUnits="userSpaceOnUse">
      <path
         id="path14502"
         d="m 1222,1422 h 143 v 119 h -143 z" />
    </clipPath>
    <clipPath
       id="clipPath14504"
       clipPathUnits="userSpaceOnUse">
      <path
         style="clip-rule:evenodd"
         id="path14506"
         d="m 1359.825,1480.403 h 17.529 v 3.425 h -17.529 z" />
    </clipPath>
    <clipPath
       id="clipPath14508"
       clipPathUnits="userSpaceOnUse">
      <path
         id="path14510"
         d="m 1222,1422 h 143 v 119 h -143 z" />
    </clipPath>
    <clipPath
       id="clipPath14512"
       clipPathUnits="userSpaceOnUse">
      <path
         style="clip-rule:evenodd"
         id="path14514"
         d="m 1359.826,1474.52 h 12.529 v 3.425 h -12.529 z" />
    </clipPath>
    <clipPath
       id="clipPath14516"
       clipPathUnits="userSpaceOnUse">
      <path
         id="path14518"
         d="m 1222,1422 h 143 v 119 h -143 z" />
    </clipPath>
    <clipPath
       id="clipPath14520"
       clipPathUnits="userSpaceOnUse">
      <path
         style="clip-rule:evenodd"
         id="path14522"
         d="m 1256.033,1449.503 h -3.763 c -1.36,0 -2.462,-1.102 -2.462,-2.461 v -0.434 h 8.685 v 0.434 c 0,1.359 -1.102,2.461 -2.46,2.461" />
    </clipPath>
    <clipPath
       id="clipPath14524"
       clipPathUnits="userSpaceOnUse">
      <path
         id="path14526"
         d="m 1222,1422 h 143 v 119 h -143 z" />
    </clipPath>
    <clipPath
       id="clipPath14528"
       clipPathUnits="userSpaceOnUse">
      <path
         style="clip-rule:evenodd"
         id="path14530"
         d="m 1317.179,1485.828 1.284,-5.131 c 0.151,-0.608 0.697,-1.034 1.324,-1.034 0.688,0 1.27,0.513 1.355,1.196 l 0.656,5.247 c 0.176,1.404 -0.919,2.643 -2.333,2.643 v 0 c -1.529,0 -2.652,-1.437 -2.281,-2.921" />
    </clipPath>
    <clipPath
       id="clipPath14532"
       clipPathUnits="userSpaceOnUse">
      <path
         id="path14534"
         d="m 1222,1422 h 143 v 119 h -143 z" />
    </clipPath>
    <clipPath
       id="clipPath14536"
       clipPathUnits="userSpaceOnUse">
      <path
         style="clip-rule:evenodd"
         id="path14538"
         d="m 1292.31,1540.24 c -38.954,0 -34.634,-47.37 -34.456,-81.696 0.01,-1.296 0.685,-2.465 1.796,-3.134 4.316,-2.603 16.17,-8.686 32.66,-8.686 16.489,0 28.343,6.083 32.659,8.686 1.11,0.669 1.789,1.838 1.796,3.134 0.178,34.326 4.497,81.696 -34.455,81.696" />
    </clipPath>
    <clipPath
       id="clipPath14540"
       clipPathUnits="userSpaceOnUse">
      <path
         id="path14542"
         d="m 1222,1422 h 143 v 119 h -143 z" />
    </clipPath>
    <clipPath
       id="clipPath14544"
       clipPathUnits="userSpaceOnUse">
      <path
         style="clip-rule:evenodd"
         id="path14546"
         d="m 1289.799,1540.142 c -36.227,-2.031 -32.119,-48.035 -31.945,-81.598 0.01,-1.296 0.685,-2.465 1.796,-3.134 4.316,-2.602 16.17,-8.686 32.66,-8.686 l 9.843,68.907" />
    </clipPath>
    <clipPath
       id="clipPath14548"
       clipPathUnits="userSpaceOnUse">
      <path
         id="path14550"
         d="m 1222,1422 h 143 v 119 h -143 z" />
    </clipPath>
    <clipPath
       id="clipPath14552"
       clipPathUnits="userSpaceOnUse">
      <path
         style="clip-rule:evenodd"
         id="path14554"
         d="m 1292.31,1540.24 c -22.149,0 -23.687,-26.763 -23.687,-26.763 12.766,2.153 20.611,-3.23 33.53,2.153 l -9.843,-68.906 c 16.489,0 28.343,6.083 32.659,8.686 1.11,0.669 1.789,1.838 1.796,3.134 0.178,34.326 4.497,81.696 -34.455,81.696" />
    </clipPath>
    <clipPath
       id="clipPath14556"
       clipPathUnits="userSpaceOnUse">
      <path
         id="path14558"
         d="m 1222,1422 h 143 v 119 h -143 z" />
    </clipPath>
    <clipPath
       id="clipPath14560"
       clipPathUnits="userSpaceOnUse">
      <path
         style="clip-rule:evenodd"
         id="path14562"
         d="m 1326.765,1458.544 c 0.152,29.496 3.337,68.594 -20.477,79.021 -0.416,-2.157 -1.168,-8.181 0.787,-12.091 4.922,-9.844 9.844,-9.844 14.766,-17.227 4.921,-27.07 -9.405,-55.802 -14.163,-59.713 8.43,2.005 14.474,5.177 17.291,6.875 1.11,0.669 1.789,1.839 1.796,3.135" />
    </clipPath>
    <clipPath
       id="clipPath14564"
       clipPathUnits="userSpaceOnUse">
      <path
         id="path14566"
         d="m 1222,1422 h 143 v 119 h -143 z" />
    </clipPath>
    <clipPath
       id="clipPath14568"
       clipPathUnits="userSpaceOnUse">
      <path
         style="clip-rule:evenodd"
         id="path14570"
         d="m 1329.602,1451.078 -21.959,9.15 c -1.834,0.763 -3.029,2.556 -3.029,4.543 v 5.947 h -24.609 v -5.947 c 0,-1.987 -1.195,-3.779 -3.029,-4.543 l -21.959,-9.15 c -2.751,-1.146 -4.543,-3.834 -4.543,-6.815 v -9.844 c 0,-2.718 2.204,-4.922 4.921,-4.922 h 73.828 c 2.718,0 4.922,2.204 4.922,4.922 v 9.844 c 0,2.981 -1.792,5.669 -4.543,6.815" />
    </clipPath>
    <clipPath
       id="clipPath14572"
       clipPathUnits="userSpaceOnUse">
      <path
         id="path14574"
         d="m 1222,1422 h 143 v 119 h -143 z" />
    </clipPath>
    <clipPath
       id="clipPath14576"
       clipPathUnits="userSpaceOnUse">
      <path
         style="clip-rule:evenodd"
         id="path14578"
         d="m 1329.602,1451.078 -21.232,8.847 -16.06,-6.932 -16.062,6.932 -21.231,-8.847 c -2.751,-1.146 -4.543,-3.834 -4.543,-6.815 v -9.844 c 0,-2.718 2.204,-4.922 4.921,-4.922 l 13.643,-12.299 52.939,4.813 7.246,7.486 c 2.718,0 4.922,2.204 4.922,4.922 v 9.844 c 0,2.981 -1.792,5.669 -4.543,6.815" />
    </clipPath>
    <clipPath
       id="clipPath14580"
       clipPathUnits="userSpaceOnUse">
      <path
         id="path14582"
         d="m 1222,1422 h 143 v 119 h -143 z" />
    </clipPath>
    <clipPath
       id="clipPath14584"
       clipPathUnits="userSpaceOnUse">
      <path
         style="clip-rule:evenodd"
         id="path14586"
         d="m 1304.614,1470.718 h -24.609 v -5.947 c 0,-1.987 -1.195,-3.779 -3.029,-4.544 l -3.429,-1.428 c 26.244,-6.693 31.067,11.919 31.067,11.919" />
    </clipPath>
    <clipPath
       id="clipPath14588"
       clipPathUnits="userSpaceOnUse">
      <path
         id="path14590"
         d="m 1222,1422 h 143 v 119 h -143 z" />
    </clipPath>
    <clipPath
       id="clipPath14592"
       clipPathUnits="userSpaceOnUse">
      <path
         style="clip-rule:evenodd"
         id="path14594"
         d="m 1262.468,1441.558 -9.877,7.857 c -1.324,-1.353 -2.117,-3.183 -2.117,-5.152 v -9.843 c 0,-2.719 2.204,-4.922 4.922,-4.922 l 10.892,-5.348 -1.049,11.643 c 0,2.243 -1.019,4.364 -2.771,5.765" />
    </clipPath>
    <clipPath
       id="clipPath14596"
       clipPathUnits="userSpaceOnUse">
      <path
         id="path14598"
         d="m 1222,1422 h 143 v 119 h -143 z" />
    </clipPath>
    <clipPath
       id="clipPath14600"
       clipPathUnits="userSpaceOnUse">
      <path
         style="clip-rule:evenodd"
         id="path14602"
         d="m 1334.146,1434.419 v 9.844 c 0,1.953 -0.781,3.771 -2.086,5.122 l -9.91,-7.827 c -1.752,-1.401 -2.77,-3.522 -2.77,-5.765 l -0.153,-8.85 9.996,2.554 c 2.718,0 4.923,2.204 4.923,4.922" />
    </clipPath>
    <clipPath
       id="clipPath14604"
       clipPathUnits="userSpaceOnUse">
      <path
         id="path14606"
         d="m 1222,1422 h 143 v 119 h -143 z" />
    </clipPath>
    <clipPath
       id="clipPath14608"
       clipPathUnits="userSpaceOnUse">
      <path
         style="clip-rule:evenodd"
         id="path14610"
         d="m 1292.31,1434.419 v 0 c -1.359,0 -2.461,1.102 -2.461,2.461 v 16.107 h 4.921 v -16.107 c 0,-1.359 -1.102,-2.461 -2.46,-2.461" />
    </clipPath>
    <clipPath
       id="clipPath14612"
       clipPathUnits="userSpaceOnUse">
      <path
         id="path14614"
         d="m 1222,1422 h 143 v 119 h -143 z" />
    </clipPath>
    <clipPath
       id="clipPath14616"
       clipPathUnits="userSpaceOnUse">
      <path
         style="clip-rule:evenodd"
         id="path14618"
         d="m 1292.31,1452.993 -14.086,10.564 c -0.904,0.678 -2.192,0.457 -2.819,-0.483 l -2.783,-4.175 8.636,-12.089 c 0.656,-0.919 1.949,-1.099 2.831,-0.393 z" />
    </clipPath>
    <clipPath
       id="clipPath14620"
       clipPathUnits="userSpaceOnUse">
      <path
         id="path14622"
         d="m 1222,1422 h 143 v 119 h -143 z" />
    </clipPath>
    <clipPath
       id="clipPath14624"
       clipPathUnits="userSpaceOnUse">
      <path
         style="clip-rule:evenodd"
         id="path14626"
         d="m 1292.31,1452.993 14.084,10.564 c 0.905,0.678 2.193,0.457 2.82,-0.483 l 2.783,-4.175 -8.636,-12.089 c -0.656,-0.919 -1.949,-1.099 -2.832,-0.393 z" />
    </clipPath>
    <clipPath
       id="clipPath14628"
       clipPathUnits="userSpaceOnUse">
      <path
         id="path14630"
         d="m 1222,1422 h 143 v 119 h -143 z" />
    </clipPath>
    <clipPath
       id="clipPath14632"
       clipPathUnits="userSpaceOnUse">
      <path
         style="clip-rule:evenodd"
         id="path14634"
         d="m 1304.614,1518.091 c -12.304,-12.305 -36.452,-2.461 -36.452,-22.148 l 1.528,-14.502 c 0.295,-3.244 2.176,-6.133 5.023,-7.714 l 14.011,-7.784 c 2.23,-1.24 4.941,-1.24 7.171,0 l 14.012,7.784 c 2.847,1.582 4.727,4.47 5.022,7.714 l 1.765,17.223 c 0.125,1.224 0.151,2.456 0.11,3.684 -0.92,6.265 -9.729,10.821 -12.19,15.743" />
    </clipPath>
    <clipPath
       id="clipPath14636"
       clipPathUnits="userSpaceOnUse">
      <path
         id="path14638"
         d="m 1222,1422 h 143 v 119 h -143 z" />
    </clipPath>
    <clipPath
       id="clipPath14640"
       clipPathUnits="userSpaceOnUse">
      <path
         style="clip-rule:evenodd"
         id="path14642"
         d="m 1307.52,1430.617 c -2.139,0 -3.874,1.734 -3.874,3.873 0,2.139 1.735,3.873 3.874,3.873 1.069,0 2.037,-0.434 2.738,-1.135 l 1.172,1.172 c -1.045,1.045 -2.433,1.62 -3.91,1.62 -1.478,0 -2.866,-0.575 -3.911,-1.62 -1.045,-1.044 -1.62,-2.433 -1.62,-3.91 0,-1.477 0.575,-2.866 1.62,-3.911 1.045,-1.044 2.433,-1.619 3.911,-1.619 1.477,0 2.865,0.575 3.91,1.619 l -1.172,1.172 c -0.701,-0.7 -1.669,-1.134 -2.738,-1.134" />
    </clipPath>
    <clipPath
       id="clipPath14644"
       clipPathUnits="userSpaceOnUse">
      <path
         id="path14646"
         d="m 1222,1422 h 143 v 119 h -143 z" />
    </clipPath>
    <clipPath
       id="clipPath14648"
       clipPathUnits="userSpaceOnUse">
      <path
         style="clip-rule:evenodd"
         id="path14650"
         d="m 1313.939,1434.49 -3.013,1.842 c 0.297,-0.548 0.467,-1.175 0.467,-1.842 0,-0.668 -0.17,-1.295 -0.467,-1.843 z" />
    </clipPath>
    <clipPath
       id="clipPath14652"
       clipPathUnits="userSpaceOnUse">
      <path
         id="path14654"
         d="m 1222,1422 h 143 v 119 h -143 z" />
    </clipPath>
    <clipPath
       id="clipPath14656"
       clipPathUnits="userSpaceOnUse">
      <path
         style="clip-rule:evenodd"
         id="path14658"
         d="m 1280.969,1496.853 c 1.329,0 2.408,-1.18 2.408,-2.636 0,-1.456 -1.079,-2.636 -2.408,-2.636 -1.328,0 -2.406,1.18 -2.406,2.636 0,1.456 1.078,2.636 2.406,2.636" />
    </clipPath>
    <clipPath
       id="clipPath14660"
       clipPathUnits="userSpaceOnUse">
      <path
         id="path14662"
         d="m 1222,1422 h 143 v 119 h -143 z" />
    </clipPath>
    <clipPath
       id="clipPath14664"
       clipPathUnits="userSpaceOnUse">
      <path
         style="clip-rule:evenodd"
         id="path14666"
         d="m 1279.92,1496.101 c 0.398,0 0.719,-0.323 0.719,-0.72 0,-0.398 -0.321,-0.719 -0.719,-0.719 -0.397,0 -0.719,0.321 -0.719,0.719 0,0.397 0.322,0.72 0.719,0.72" />
    </clipPath>
    <clipPath
       id="clipPath14668"
       clipPathUnits="userSpaceOnUse">
      <path
         id="path14670"
         d="m 1222,1422 h 143 v 119 h -143 z" />
    </clipPath>
    <clipPath
       id="clipPath14672"
       clipPathUnits="userSpaceOnUse">
      <path
         style="clip-rule:evenodd"
         id="path14674"
         d="m 1277.12,1499.9 c 1.137,-0.436 2.965,1.481 7.147,-0.186 0.763,-0.304 1.219,2.599 -3.265,2.599 -3.882,0 -4.569,-2.15 -3.882,-2.413" />
    </clipPath>
    <clipPath
       id="clipPath14676"
       clipPathUnits="userSpaceOnUse">
      <path
         id="path14678"
         d="m 1222,1422 h 143 v 119 h -143 z" />
    </clipPath>
    <clipPath
       id="clipPath14680"
       clipPathUnits="userSpaceOnUse">
      <path
         style="clip-rule:evenodd"
         id="path14682"
         d="m 1302.922,1496.853 c 1.33,0 2.407,-1.18 2.407,-2.636 0,-1.456 -1.077,-2.636 -2.407,-2.636 -1.328,0 -2.406,1.18 -2.406,2.636 0,1.456 1.078,2.636 2.406,2.636" />
    </clipPath>
    <clipPath
       id="clipPath14684"
       clipPathUnits="userSpaceOnUse">
      <path
         id="path14686"
         d="m 1222,1422 h 143 v 119 h -143 z" />
    </clipPath>
    <clipPath
       id="clipPath14688"
       clipPathUnits="userSpaceOnUse">
      <path
         style="clip-rule:evenodd"
         id="path14690"
         d="m 1301.874,1496.101 c 0.397,0 0.719,-0.322 0.719,-0.72 0,-0.398 -0.322,-0.72 -0.719,-0.72 -0.398,0 -0.72,0.322 -0.72,0.72 0,0.398 0.322,0.72 0.72,0.72" />
    </clipPath>
    <clipPath
       id="clipPath14692"
       clipPathUnits="userSpaceOnUse">
      <path
         id="path14694"
         d="m 1222,1422 h 143 v 119 h -143 z" />
    </clipPath>
    <clipPath
       id="clipPath14696"
       clipPathUnits="userSpaceOnUse">
      <path
         style="clip-rule:evenodd"
         id="path14698"
         d="m 1306.475,1499.9 c -1.138,-0.436 -2.965,1.481 -7.147,-0.186 -0.763,-0.304 -1.219,2.599 3.265,2.599 3.882,0 4.569,-2.15 3.882,-2.413" />
    </clipPath>
    <clipPath
       id="clipPath14700"
       clipPathUnits="userSpaceOnUse">
      <path
         id="path14702"
         d="m 1222,1422 h 143 v 119 h -143 z" />
    </clipPath>
    <clipPath
       id="clipPath14704"
       clipPathUnits="userSpaceOnUse">
      <path
         style="clip-rule:evenodd"
         id="path14706"
         d="m 1291.797,1484.145 c -2.377,0 -3.81,1.776 -3.81,0.917 0,-0.86 0.688,-2.493 3.81,-2.493 3.124,0 3.811,1.633 3.811,2.493 0,0.859 -1.432,-0.917 -3.811,-0.917" />
    </clipPath>
    <clipPath
       id="clipPath14708"
       clipPathUnits="userSpaceOnUse">
      <path
         id="path14710"
         d="m 1222,1422 h 143 v 119 h -143 z" />
    </clipPath>
    <clipPath
       id="clipPath14712"
       clipPathUnits="userSpaceOnUse">
      <path
         style="clip-rule:evenodd"
         id="path14714"
         d="m 1291.797,1478.432 c -3.768,0 -6.039,1.535 -6.039,1.146 0,-0.389 1.09,-1.92 6.039,-1.92 4.95,0 6.04,1.531 6.04,1.92 0,0.389 -2.271,-1.146 -6.04,-1.146" />
    </clipPath>
    <clipPath
       id="clipPath14716"
       clipPathUnits="userSpaceOnUse">
      <path
         id="path14718"
         d="m 1222,1422 h 143 v 119 h -143 z" />
    </clipPath>
    <clipPath
       id="clipPath14144"
       clipPathUnits="userSpaceOnUse">
      <path
         style="clip-rule:evenodd"
         id="path14146"
         d="m 1364.133,1492.956 c 0,-39.182 -31.764,-70.945 -70.945,-70.945 -39.183,0 -70.946,31.763 -70.946,70.945 0,39.183 31.763,70.946 70.946,70.946 39.181,0 70.945,-31.763 70.945,-70.946" />
    </clipPath>
    <clipPath
       id="clipPath14150"
       clipPathUnits="userSpaceOnUse">
      <path
         id="path14152"
         d="m 1192,1054 h 986 v 554 h -986 z" />
    </clipPath>
  </defs>
  <metadata
     id="metadata12009">
    <rdf:RDF>
      <cc:Work
         rdf:about="">
        <dc:format>image/svg+xml</dc:format>
        <dc:type
           rdf:resource="http://purl.org/dc/dcmitype/StillImage" />
        <dc:title></dc:title>
      </cc:Work>
    </rdf:RDF>
  </metadata>
  <g
     transform="translate(318.33753,-108.68629)"
     id="layer1">
    <g
       id="g14140"
       transform="matrix(0.3527778,0,0,-0.3527778,-749.51737,660.3962)">
      <g
         clip-path="url(#clipPath14144)"
         id="g14142">
        <g
           clip-path="url(#clipPath14150)"
           id="g14148">
          <path
             id="path14154"
             style="fill:#00e575;fill-opacity:1;fill-rule:nonzero;stroke:none"
             d="m 1217.242,1417.011 h 151.8912 v 151.8912 H 1217.242 Z" />
        </g>
      </g>
    </g>
    <g
       id="g14156"
       transform="matrix(0.3527778,0,0,-0.3527778,-749.51737,660.3962)">
      <g
         clip-path="url(#clipPath14160)"
         id="g14158">
        <g
           clip-path="url(#clipPath14166)"
           id="g14164">
          <g
             id="g14170" />
          <g
             id="g14720">
            <g
               id="g14722"
               clip-path="url(#clipPath14172)">
              <g
                 id="g14724" />
              <g
                 id="g14726">
                <g
                   id="g14728"
                   clip-path="url(#clipPath14176)">
                  <g
                     id="g14730"
                     clip-path="url(#clipPath14180)">
                    <path
                       id="path14732"
                       style="fill:#c1ffe0;fill-opacity:1;fill-rule:nonzero;stroke:none"
                       d="m 1209.993,1498.811 h 43.7709 v 39.4802 h -43.7709 z" />
                  </g>
                </g>
              </g>
              <g
                 id="g14734">
                <g
                   id="g14736"
                   clip-path="url(#clipPath14184)">
                  <g
                     id="g14738"
                     clip-path="url(#clipPath14188)">
                    <path
                       id="path14740"
                       style="fill:#e81e63;fill-opacity:1;fill-rule:nonzero;stroke:none"
                       d="m 1239.822,1524.465 h 16.8743 v 16.8743 h -16.8743 z" />
                  </g>
                </g>
              </g>
              <g
                 id="g14742">
                <g
                   id="g14744"
                   clip-path="url(#clipPath14192)">
                  <g
                     id="g14746"
                     clip-path="url(#clipPath14196)">
                    <path
                       id="path14748"
                       style="fill:#ffffff;fill-opacity:1;fill-rule:nonzero;stroke:none"
                       d="m 1214.35,1517.03 h 31.462 v 13.4243 h -31.462 z" />
                  </g>
                </g>
              </g>
              <g
                 id="g14750">
                <g
                   id="g14752"
                   clip-path="url(#clipPath14200)">
                  <g
                     id="g14754"
                     clip-path="url(#clipPath14204)">
                    <path
                       id="path14756"
                       style="fill:#ffffff;fill-opacity:1;fill-rule:nonzero;stroke:none"
                       d="m 1214.349,1511.148 h 27.5291 v 13.4243 h -27.5291 z" />
                  </g>
                </g>
              </g>
              <g
                 id="g14758">
                <g
                   id="g14760"
                   clip-path="url(#clipPath14208)">
                  <g
                     id="g14762"
                     clip-path="url(#clipPath14212)">
                    <path
                       id="path14764"
                       style="fill:#ffffff;fill-opacity:1;fill-rule:nonzero;stroke:none"
                       d="m 1214.35,1505.265 h 22.5286 v 13.4243 H 1214.35 Z" />
                  </g>
                </g>
              </g>
              <g
                 id="g14766">
                <g
                   id="g14768"
                   clip-path="url(#clipPath14216)">
                  <g
                     id="g14770"
                     clip-path="url(#clipPath14220)">
                    <path
                       id="path14772"
                       style="fill:#b7e0ff;fill-opacity:1;fill-rule:nonzero;stroke:none"
                       d="m 1249.468,1498.307 h 43.7709 v 39.4802 h -43.7709 z" />
                  </g>
                </g>
              </g>
              <g
                 id="g14774">
                <g
                   id="g14776"
                   clip-path="url(#clipPath14224)">
                  <g
                     id="g14778"
                     clip-path="url(#clipPath14228)">
                    <path
                       id="path14780"
                       style="fill:#00e575;fill-opacity:1;fill-rule:nonzero;stroke:none"
                       d="m 1279.297,1523.962 h 16.8743 v 16.8743 h -16.8743 z" />
                  </g>
                </g>
              </g>
              <g
                 id="g14782">
                <g
                   id="g14784"
                   clip-path="url(#clipPath14232)">
                  <g
                     id="g14786"
                     clip-path="url(#clipPath14236)">
                    <path
                       id="path14788"
                       style="fill:#ffffff;fill-opacity:1;fill-rule:nonzero;stroke:none"
                       d="m 1253.825,1516.526 h 31.462 v 13.4243 h -31.462 z" />
                  </g>
                </g>
              </g>
              <g
                 id="g14790">
                <g
                   id="g14792"
                   clip-path="url(#clipPath14240)">
                  <g
                     id="g14794"
                     clip-path="url(#clipPath14244)">
                    <path
                       id="path14796"
                       style="fill:#ffffff;fill-opacity:1;fill-rule:nonzero;stroke:none"
                       d="m 1253.824,1510.644 h 27.5291 v 13.4243 h -27.5291 z" />
                  </g>
                </g>
              </g>
              <g
                 id="g14798">
                <g
                   id="g14800"
                   clip-path="url(#clipPath14248)">
                  <g
                     id="g14802"
                     clip-path="url(#clipPath14252)">
                    <path
                       id="path14804"
                       style="fill:#ffffff;fill-opacity:1;fill-rule:nonzero;stroke:none"
                       d="m 1253.825,1504.762 h 22.5294 v 13.4243 h -22.5294 z" />
                  </g>
                </g>
              </g>
              <g
                 id="g14806">
                <g
                   id="g14808"
                   clip-path="url(#clipPath14256)">
                  <g
                     id="g14810"
                     clip-path="url(#clipPath14260)">
                    <path
                       id="path14812"
                       style="fill:#fff39d;fill-opacity:1;fill-rule:nonzero;stroke:none"
                       d="m 1288.112,1498.307 h 43.7709 v 39.4802 h -43.7709 z" />
                  </g>
                </g>
              </g>
              <g
                 id="g14814">
                <g
                   id="g14816"
                   clip-path="url(#clipPath14264)">
                  <g
                     id="g14818"
                     clip-path="url(#clipPath14268)">
                    <path
                       id="path14820"
                       style="fill:#2c7af8;fill-opacity:1;fill-rule:nonzero;stroke:none"
                       d="m 1317.942,1523.962 h 16.8743 v 16.8743 h -16.8743 z" />
                  </g>
                </g>
              </g>
              <g
                 id="g14822">
                <g
                   id="g14824"
                   clip-path="url(#clipPath14272)">
                  <g
                     id="g14826"
                     clip-path="url(#clipPath14276)">
                    <path
                       id="path14828"
                       style="fill:#ffffff;fill-opacity:1;fill-rule:nonzero;stroke:none"
                       d="m 1292.468,1516.526 h 31.462 v 13.4243 h -31.462 z" />
                  </g>
                </g>
              </g>
              <g
                 id="g14830">
                <g
                   id="g14832"
                   clip-path="url(#clipPath14280)">
                  <g
                     id="g14834"
                     clip-path="url(#clipPath14284)">
                    <path
                       id="path14836"
                       style="fill:#ffffff;fill-opacity:1;fill-rule:nonzero;stroke:none"
                       d="m 1292.468,1510.644 h 27.5291 v 13.4243 h -27.5291 z" />
                  </g>
                </g>
              </g>
              <g
                 id="g14838">
                <g
                   id="g14840"
                   clip-path="url(#clipPath14288)">
                  <g
                     id="g14842"
                     clip-path="url(#clipPath14292)">
                    <path
                       id="path14844"
                       style="fill:#ffffff;fill-opacity:1;fill-rule:nonzero;stroke:none"
                       d="m 1292.469,1504.762 h 22.5294 v 13.4243 h -22.5294 z" />
                  </g>
                </g>
              </g>
              <g
                 id="g14846">
                <g
                   id="g14848"
                   clip-path="url(#clipPath14296)">
                  <g
                     id="g14850"
                     clip-path="url(#clipPath14300)">
                    <path
                       id="path14852"
                       style="fill:#ffb69f;fill-opacity:1;fill-rule:nonzero;stroke:none"
                       d="m 1326.883,1497.804 h 43.77 v 39.4802 h -43.77 z" />
                  </g>
                </g>
              </g>
              <g
                 id="g14854">
                <g
                   id="g14856"
                   clip-path="url(#clipPath14304)">
                  <g
                     id="g14858"
                     clip-path="url(#clipPath14308)">
                    <path
                       id="path14860"
                       style="fill:#e81e63;fill-opacity:1;fill-rule:nonzero;stroke:none"
                       d="m 1356.712,1523.458 h 16.8743 v 16.8751 h -16.8743 z" />
                  </g>
                </g>
              </g>
              <g
                 id="g14862">
                <g
                   id="g14864"
                   clip-path="url(#clipPath14312)">
                  <g
                     id="g14866"
                     clip-path="url(#clipPath14316)">
                    <path
                       id="path14868"
                       style="fill:#ffffff;fill-opacity:1;fill-rule:nonzero;stroke:none"
                       d="m 1331.239,1516.024 h 31.462 v 13.4243 h -31.462 z" />
                  </g>
                </g>
              </g>
              <g
                 id="g14870">
                <g
                   id="g14872"
                   clip-path="url(#clipPath14320)">
                  <g
                     id="g14874"
                     clip-path="url(#clipPath14324)">
                    <path
                       id="path14876"
                       style="fill:#ffffff;fill-opacity:1;fill-rule:nonzero;stroke:none"
                       d="m 1331.239,1510.141 h 27.5283 v 13.4243 h -27.5283 z" />
                  </g>
                </g>
              </g>
              <g
                 id="g14878">
                <g
                   id="g14880"
                   clip-path="url(#clipPath14328)">
                  <g
                     id="g14882"
                     clip-path="url(#clipPath14332)">
                    <path
                       id="path14884"
                       style="fill:#ffffff;fill-opacity:1;fill-rule:nonzero;stroke:none"
                       d="m 1331.24,1504.259 h 22.5286 v 13.4243 H 1331.24 Z" />
                  </g>
                </g>
              </g>
              <g
                 id="g14886">
                <g
                   id="g14888"
                   clip-path="url(#clipPath14336)">
                  <g
                     id="g14890"
                     clip-path="url(#clipPath14340)">
                    <path
                       id="path14892"
                       style="fill:#eacaff;fill-opacity:1;fill-rule:nonzero;stroke:none"
                       d="m 1233.528,1463.045 h 43.7701 v 39.4802 h -43.7701 z" />
                  </g>
                </g>
              </g>
              <g
                 id="g14894">
                <g
                   id="g14896"
                   clip-path="url(#clipPath14344)">
                  <g
                     id="g14898"
                     clip-path="url(#clipPath14348)">
                    <path
                       id="path14900"
                       style="fill:#ffb200;fill-opacity:1;fill-rule:nonzero;stroke:none"
                       d="m 1263.357,1488.699 h 16.8743 v 16.8743 h -16.8743 z" />
                  </g>
                </g>
              </g>
              <g
                 id="g14902">
                <g
                   id="g14904"
                   clip-path="url(#clipPath14352)">
                  <g
                     id="g14906"
                     clip-path="url(#clipPath14356)">
                    <path
                       id="path14908"
                       style="fill:#ffffff;fill-opacity:1;fill-rule:nonzero;stroke:none"
                       d="m 1237.884,1481.264 h 31.462 v 13.4243 h -31.462 z" />
                  </g>
                </g>
              </g>
              <g
                 id="g14910">
                <g
                   id="g14912"
                   clip-path="url(#clipPath14360)">
                  <g
                     id="g14914"
                     clip-path="url(#clipPath14364)">
                    <path
                       id="path14916"
                       style="fill:#ffffff;fill-opacity:1;fill-rule:nonzero;stroke:none"
                       d="m 1237.884,1475.382 h 27.5291 v 13.4243 h -27.5291 z" />
                  </g>
                </g>
              </g>
              <g
                 id="g14918">
                <g
                   id="g14920"
                   clip-path="url(#clipPath14368)">
                  <g
                     id="g14922"
                     clip-path="url(#clipPath14372)">
                    <path
                       id="path14924"
                       style="fill:#ffffff;fill-opacity:1;fill-rule:nonzero;stroke:none"
                       d="m 1237.884,1469.499 h 22.5286 v 13.4243 h -22.5286 z" />
                  </g>
                </g>
              </g>
              <g
                 id="g14926">
                <g
                   id="g14928"
                   clip-path="url(#clipPath14376)">
                  <g
                     id="g14930"
                     clip-path="url(#clipPath14380)">
                    <path
                       id="path14932"
                       style="fill:#ffd69f;fill-opacity:1;fill-rule:nonzero;stroke:none"
                       d="m 1273.002,1462.541 h 43.7709 v 39.4802 h -43.7709 z" />
                  </g>
                </g>
              </g>
              <g
                 id="g14934">
                <g
                   id="g14936"
                   clip-path="url(#clipPath14384)">
                  <g
                     id="g14938"
                     clip-path="url(#clipPath14388)">
                    <path
                       id="path14940"
                       style="fill:#e81e63;fill-opacity:1;fill-rule:nonzero;stroke:none"
                       d="m 1302.832,1488.195 h 16.8743 v 16.8751 h -16.8743 z" />
                  </g>
                </g>
              </g>
              <g
                 id="g14942">
                <g
                   id="g14944"
                   clip-path="url(#clipPath14392)">
                  <g
                     id="g14946"
                     clip-path="url(#clipPath14396)">
                    <path
                       id="path14948"
                       style="fill:#ffffff;fill-opacity:1;fill-rule:nonzero;stroke:none"
                       d="m 1277.359,1480.761 h 31.462 v 13.4243 h -31.462 z" />
                  </g>
                </g>
              </g>
              <g
                 id="g14950">
                <g
                   id="g14952"
                   clip-path="url(#clipPath14400)">
                  <g
                     id="g14954"
                     clip-path="url(#clipPath14404)">
                    <path
                       id="path14956"
                       style="fill:#ffffff;fill-opacity:1;fill-rule:nonzero;stroke:none"
                       d="m 1277.359,1474.878 h 27.5291 v 13.4243 h -27.5291 z" />
                  </g>
                </g>
              </g>
              <g
                 id="g14958">
                <g
                   id="g14960"
                   clip-path="url(#clipPath14408)">
                  <g
                     id="g14962"
                     clip-path="url(#clipPath14412)">
                    <path
                       id="path14964"
                       style="fill:#ffffff;fill-opacity:1;fill-rule:nonzero;stroke:none"
                       d="m 1277.359,1468.996 h 22.5294 v 13.4243 h -22.5294 z" />
                  </g>
                </g>
              </g>
              <g
                 id="g14966">
                <g
                   id="g14968"
                   clip-path="url(#clipPath14416)">
                  <g
                     id="g14970"
                     clip-path="url(#clipPath14420)">
                    <path
                       id="path14972"
                       style="fill:#ffb69f;fill-opacity:1;fill-rule:nonzero;stroke:none"
                       d="m 1311.647,1462.541 h 43.7709 v 39.4802 h -43.7709 z" />
                  </g>
                </g>
              </g>
              <g
                 id="g14974">
                <g
                   id="g14976"
                   clip-path="url(#clipPath14424)">
                  <g
                     id="g14978"
                     clip-path="url(#clipPath14428)">
                    <path
                       id="path14980"
                       style="fill:#e81e63;fill-opacity:1;fill-rule:nonzero;stroke:none"
                       d="m 1341.476,1488.195 h 16.8743 v 16.8751 h -16.8743 z" />
                  </g>
                </g>
              </g>
              <g
                 id="g14982">
                <g
                   id="g14984"
                   clip-path="url(#clipPath14432)">
                  <g
                     id="g14986"
                     clip-path="url(#clipPath14436)">
                    <path
                       id="path14988"
                       style="fill:#ffffff;fill-opacity:1;fill-rule:nonzero;stroke:none"
                       d="m 1316.003,1480.761 h 31.462 v 13.4243 h -31.462 z" />
                  </g>
                </g>
              </g>
              <g
                 id="g14990">
                <g
                   id="g14992"
                   clip-path="url(#clipPath14440)">
                  <g
                     id="g14994"
                     clip-path="url(#clipPath14444)">
                    <path
                       id="path14996"
                       style="fill:#ffffff;fill-opacity:1;fill-rule:nonzero;stroke:none"
                       d="m 1316.003,1474.878 h 27.5291 v 13.4243 h -27.5291 z" />
                  </g>
                </g>
              </g>
              <g
                 id="g14998">
                <g
                   id="g15000"
                   clip-path="url(#clipPath14448)">
                  <g
                     id="g15002"
                     clip-path="url(#clipPath14452)">
                    <path
                       id="path15004"
                       style="fill:#ffffff;fill-opacity:1;fill-rule:nonzero;stroke:none"
                       d="m 1316.003,1468.996 h 22.5286 v 13.4243 h -22.5286 z" />
                  </g>
                </g>
              </g>
              <g
                 id="g15006">
                <g
                   id="g15008"
                   clip-path="url(#clipPath14456)">
                  <g
                     id="g15010"
                     clip-path="url(#clipPath14460)">
                    <path
                       id="path15012"
                       style="fill:#b7e0ff;fill-opacity:1;fill-rule:nonzero;stroke:none"
                       d="m 1195.306,1462.667 h 43.7709 v 39.4802 h -43.7709 z" />
                  </g>
                </g>
              </g>
              <g
                 id="g15014">
                <g
                   id="g15016"
                   clip-path="url(#clipPath14464)">
                  <g
                     id="g15018"
                     clip-path="url(#clipPath14468)">
                    <path
                       id="path15020"
                       style="fill:#00e575;fill-opacity:1;fill-rule:nonzero;stroke:none"
                       d="m 1225.136,1488.321 h 16.8743 v 16.8751 h -16.8743 z" />
                  </g>
                </g>
              </g>
              <g
                 id="g15022">
                <g
                   id="g15024"
                   clip-path="url(#clipPath14472)">
                  <g
                     id="g15026"
                     clip-path="url(#clipPath14476)">
                    <path
                       id="path15028"
                       style="fill:#ffffff;fill-opacity:1;fill-rule:nonzero;stroke:none"
                       d="m 1199.663,1480.887 h 31.462 v 13.4243 h -31.462 z" />
                  </g>
                </g>
              </g>
              <g
                 id="g15030">
                <g
                   id="g15032"
                   clip-path="url(#clipPath14480)">
                  <g
                     id="g15034"
                     clip-path="url(#clipPath14484)">
                    <path
                       id="path15036"
                       style="fill:#ffffff;fill-opacity:1;fill-rule:nonzero;stroke:none"
                       d="m 1199.663,1475.004 h 27.5291 v 13.4243 h -27.5291 z" />
                  </g>
                </g>
              </g>
              <g
                 id="g15038">
                <g
                   id="g15040"
                   clip-path="url(#clipPath14488)">
                  <g
                     id="g15042"
                     clip-path="url(#clipPath14492)">
                    <path
                       id="path15044"
                       style="fill:#c1ffe0;fill-opacity:1;fill-rule:nonzero;stroke:none"
                       d="m 1350.47,1463.066 h 43.7701 v 39.4802 H 1350.47 Z" />
                  </g>
                </g>
              </g>
              <g
                 id="g15046">
                <g
                   id="g15048"
                   clip-path="url(#clipPath14496)">
                  <g
                     id="g15050"
                     clip-path="url(#clipPath14500)">
                    <path
                       id="path15052"
                       style="fill:#ffffff;fill-opacity:1;fill-rule:nonzero;stroke:none"
                       d="m 1354.826,1481.285 h 31.462 v 13.4243 h -31.462 z" />
                  </g>
                </g>
              </g>
              <g
                 id="g15054">
                <g
                   id="g15056"
                   clip-path="url(#clipPath14504)">
                  <g
                     id="g15058"
                     clip-path="url(#clipPath14508)">
                    <path
                       id="path15060"
                       style="fill:#ffffff;fill-opacity:1;fill-rule:nonzero;stroke:none"
                       d="m 1354.825,1475.403 h 27.5291 v 13.4243 h -27.5291 z" />
                  </g>
                </g>
              </g>
              <g
                 id="g15062">
                <g
                   id="g15064"
                   clip-path="url(#clipPath14512)">
                  <g
                     id="g15066"
                     clip-path="url(#clipPath14516)">
                    <path
                       id="path15068"
                       style="fill:#ffffff;fill-opacity:1;fill-rule:nonzero;stroke:none"
                       d="m 1354.826,1469.52 h 22.5286 v 13.4243 h -22.5286 z" />
                  </g>
                </g>
              </g>
              <g
                 id="g15070">
                <g
                   id="g15072"
                   clip-path="url(#clipPath14520)">
                  <g
                     id="g15074"
                     clip-path="url(#clipPath14524)">
                    <path
                       id="path15076"
                       style="fill:#e4eaf6;fill-opacity:1;fill-rule:nonzero;stroke:none"
                       d="m 1244.808,1441.608 h 18.6856 v 12.8949 h -18.6856 z" />
                  </g>
                </g>
              </g>
              <g
                 id="g15078">
                <g
                   id="g15080"
                   clip-path="url(#clipPath14528)">
                  <g
                     id="g15082"
                     clip-path="url(#clipPath14532)">
                    <path
                       id="path15084"
                       style="fill:#e6af78;fill-opacity:1;fill-rule:nonzero;stroke:none"
                       d="m 1312.108,1474.663 h 14.7087 v 19.0866 h -14.7087 z" />
                  </g>
                </g>
              </g>
              <g
                 id="g15086">
                <g
                   id="g15088"
                   clip-path="url(#clipPath14536)">
                  <g
                     id="g15090"
                     clip-path="url(#clipPath14540)">
                    <path
                       id="path15092"
                       style="fill:#694b4b;fill-opacity:1;fill-rule:nonzero;stroke:none"
                       d="m 1252.629,1441.724 h 79.3611 v 103.5158 h -79.3611 z" />
                  </g>
                </g>
              </g>
              <g
                 id="g15094">
                <g
                   id="g15096"
                   clip-path="url(#clipPath14544)">
                  <g
                     id="g15098"
                     clip-path="url(#clipPath14548)">
                    <path
                       id="path15100"
                       style="fill:#5a4146;fill-opacity:1;fill-rule:nonzero;stroke:none"
                       d="m 1252.632,1441.724 h 54.5213 v 103.4179 h -54.5213 z" />
                  </g>
                </g>
              </g>
              <g
                 id="g15102">
                <g
                   id="g15104"
                   clip-path="url(#clipPath14552)">
                  <g
                     id="g15106"
                     clip-path="url(#clipPath14556)">
                    <path
                       id="path15108"
                       style="fill:#694b4b;fill-opacity:1;fill-rule:nonzero;stroke:none"
                       d="m 1263.623,1441.724 h 68.3665 v 103.5158 h -68.3665 z" />
                  </g>
                </g>
              </g>
              <g
                 id="g15110">
                <g
                   id="g15112"
                   clip-path="url(#clipPath14560)">
                  <g
                     id="g15114"
                     clip-path="url(#clipPath14564)">
                    <path
                       id="path15116"
                       style="fill:#785550;fill-opacity:1;fill-rule:nonzero;stroke:none"
                       d="m 1300.792,1443.534 h 31.1938 v 99.0318 h -31.1938 z" />
                  </g>
                </g>
              </g>
              <g
                 id="g15118">
                <g
                   id="g15120"
                   clip-path="url(#clipPath14568)">
                  <g
                     id="g15122"
                     clip-path="url(#clipPath14572)">
                    <path
                       id="path15124"
                       style="fill:#e6af78;fill-opacity:1;fill-rule:nonzero;stroke:none"
                       d="m 1245.474,1424.497 h 93.6719 v 51.2211 h -93.6719 z" />
                  </g>
                </g>
              </g>
              <g
                 id="g15126">
                <g
                   id="g15128"
                   clip-path="url(#clipPath14576)">
                  <g
                     id="g15130"
                     clip-path="url(#clipPath14580)">
                    <path
                       id="path15132"
                       style="fill:#991464;fill-opacity:1;fill-rule:nonzero;stroke:none"
                       d="m 1245.474,1412.198 h 93.6719 v 52.7267 h -93.6719 z" />
                  </g>
                </g>
              </g>
              <g
                 id="g15134">
                <g
                   id="g15136"
                   clip-path="url(#clipPath14584)">
                  <g
                     id="g15138"
                     clip-path="url(#clipPath14588)">
                    <path
                       id="path15140"
                       style="fill:#d29b6e;fill-opacity:1;fill-rule:nonzero;stroke:none"
                       d="m 1268.547,1452.347 h 41.0668 v 23.3718 h -41.0668 z" />
                  </g>
                </g>
              </g>
              <g
                 id="g15142">
                <g
                   id="g15144"
                   clip-path="url(#clipPath14592)">
                  <g
                     id="g15146"
                     clip-path="url(#clipPath14596)">
                    <path
                       id="path15148"
                       style="fill:#870c4f;fill-opacity:1;fill-rule:nonzero;stroke:none"
                       d="m 1245.474,1419.15 h 25.8142 v 35.265 h -25.8142 z" />
                  </g>
                </g>
              </g>
              <g
                 id="g15150">
                <g
                   id="g15152"
                   clip-path="url(#clipPath14600)">
                  <g
                     id="g15154"
                     clip-path="url(#clipPath14604)">
                    <path
                       id="path15156"
                       style="fill:#870c4f;fill-opacity:1;fill-rule:nonzero;stroke:none"
                       d="m 1314.227,1421.943 h 24.9182 v 32.4423 h -24.9182 z" />
                  </g>
                </g>
              </g>
              <g
                 id="g15158">
                <g
                   id="g15160"
                   clip-path="url(#clipPath14608)">
                  <g
                     id="g15162"
                     clip-path="url(#clipPath14612)">
                    <path
                       id="path15164"
                       style="fill:#870c4f;fill-opacity:1;fill-rule:nonzero;stroke:none"
                       d="m 1284.849,1429.419 h 14.9211 v 28.5679 h -14.9211 z" />
                  </g>
                </g>
              </g>
              <g
                 id="g15166">
                <g
                   id="g15168"
                   clip-path="url(#clipPath14616)">
                  <g
                     id="g15170"
                     clip-path="url(#clipPath14620)">
                    <path
                       id="path15172"
                       style="fill:#870c4f;fill-opacity:1;fill-rule:nonzero;stroke:none"
                       d="m 1267.622,1440.985 h 29.6877 v 27.9656 h -29.6877 z" />
                  </g>
                </g>
              </g>
              <g
                 id="g15174">
                <g
                   id="g15176"
                   clip-path="url(#clipPath14624)">
                  <g
                     id="g15178"
                     clip-path="url(#clipPath14628)">
                    <path
                       id="path15180"
                       style="fill:#870c4f;fill-opacity:1;fill-rule:nonzero;stroke:none"
                       d="m 1287.31,1440.985 h 29.6869 v 27.9656 H 1287.31 Z" />
                  </g>
                </g>
              </g>
              <g
                 id="g15182">
                <g
                   id="g15184"
                   clip-path="url(#clipPath14632)">
                  <g
                     id="g15186"
                     clip-path="url(#clipPath14636)">
                    <path
                       id="path15188"
                       style="fill:#f0c087;fill-opacity:1;fill-rule:nonzero;stroke:none"
                       d="m 1263.162,1460.013 h 58.6601 v 63.0781 h -58.6601 z" />
                  </g>
                </g>
              </g>
              <g
                 id="g15190">
                <g
                   id="g15192"
                   clip-path="url(#clipPath14640)">
                  <g
                     id="g15194"
                     clip-path="url(#clipPath14644)">
                    <path
                       id="path15196"
                       style="fill:#ffffff;fill-opacity:1;fill-rule:nonzero;stroke:none"
                       d="m 1296.989,1423.96 h 19.4412 v 21.0607 h -19.4412 z" />
                  </g>
                </g>
              </g>
              <g
                 id="g15198">
                <g
                   id="g15200"
                   clip-path="url(#clipPath14648)">
                  <g
                     id="g15202"
                     clip-path="url(#clipPath14652)">
                    <path
                       id="path15204"
                       style="fill:#00e575;fill-opacity:1;fill-rule:nonzero;stroke:none"
                       d="m 1305.926,1427.647 h 13.012 v 13.685 h -13.012 z" />
                  </g>
                </g>
              </g>
              <g
                 id="g15206">
                <g
                   id="g15208"
                   clip-path="url(#clipPath14656)">
                  <g
                     id="g15210"
                     clip-path="url(#clipPath14660)">
                    <path
                       id="path15212"
                       style="fill:#3b2519;fill-opacity:1;fill-rule:nonzero;stroke:none"
                       d="m 1273.563,1486.581 h 14.8136 v 15.2717 h -14.8136 z" />
                  </g>
                </g>
              </g>
              <g
                 id="g15214">
                <g
                   id="g15216"
                   clip-path="url(#clipPath14664)">
                  <g
                     id="g15218"
                     clip-path="url(#clipPath14668)">
                    <path
                       id="path15220"
                       style="fill:#ffffff;fill-opacity:1;fill-rule:nonzero;stroke:none"
                       d="m 1274.201,1489.662 h 11.4382 v 11.439 h -11.4382 z" />
                  </g>
                </g>
              </g>
              <g
                 id="g15222">
                <g
                   id="g15224"
                   clip-path="url(#clipPath14672)">
                  <g
                     id="g15226"
                     clip-path="url(#clipPath14676)">
                    <path
                       id="path15228"
                       style="fill:#785550;fill-opacity:1;fill-rule:nonzero;stroke:none"
                       d="m 1271.885,1494.691 h 17.8714 v 12.6212 h -17.8714 z" />
                  </g>
                </g>
              </g>
              <g
                 id="g15230">
                <g
                   id="g15232"
                   clip-path="url(#clipPath14680)">
                  <g
                     id="g15234"
                     clip-path="url(#clipPath14684)">
                    <path
                       id="path15236"
                       style="fill:#3b2519;fill-opacity:1;fill-rule:nonzero;stroke:none"
                       d="m 1295.516,1486.581 h 14.8128 v 15.2717 h -14.8128 z" />
                  </g>
                </g>
              </g>
              <g
                 id="g15238">
                <g
                   id="g15240"
                   clip-path="url(#clipPath14688)">
                  <g
                     id="g15242"
                     clip-path="url(#clipPath14692)">
                    <path
                       id="path15244"
                       style="fill:#ffffff;fill-opacity:1;fill-rule:nonzero;stroke:none"
                       d="m 1296.154,1489.661 h 11.439 v 11.4398 h -11.439 z" />
                  </g>
                </g>
              </g>
              <g
                 id="g15246">
                <g
                   id="g15248"
                   clip-path="url(#clipPath14696)">
                  <g
                     id="g15250"
                     clip-path="url(#clipPath14700)">
                    <path
                       id="path15252"
                       style="fill:#785550;fill-opacity:1;fill-rule:nonzero;stroke:none"
                       d="m 1293.838,1494.691 h 17.8714 v 12.6212 h -17.8714 z" />
                  </g>
                </g>
              </g>
              <g
                 id="g15254">
                <g
                   id="g15256"
                   clip-path="url(#clipPath14704)">
                  <g
                     id="g15258"
                     clip-path="url(#clipPath14708)">
                    <path
                       id="path15260"
                       style="fill:#d69c67;fill-opacity:1;fill-rule:nonzero;stroke:none"
                       d="m 1282.987,1477.569 h 17.6203 v 12.7269 h -17.6203 z" />
                  </g>
                </g>
              </g>
              <g
                 id="g15262">
                <g
                   id="g15264"
                   clip-path="url(#clipPath14712)">
                  <g
                     id="g15266"
                     clip-path="url(#clipPath14716)">
                    <path
                       id="path15268"
                       style="fill:#f7945e;fill-opacity:1;fill-rule:nonzero;stroke:none"
                       d="m 1280.758,1472.658 h 22.0786 v 11.9827 h -22.0786 z" />
                  </g>
                </g>
              </g>
            </g>
          </g>
        </g>
      </g>
    </g>
  </g>
</svg>
