<?xml version="1.0" encoding="utf-8"?>
<!-- Generator: Adobe Illustrator 19.1.0, SVG Export Plug-In . SVG Version: 6.00 Build 0)  -->
<svg version="1.1" id="Layer_1" xmlns="http://www.w3.org/2000/svg" xmlns:xlink="http://www.w3.org/1999/xlink" x="0px" y="0px"
	 viewBox="-947 387 25 20" style="enable-background:new -947 387 25 20;" xml:space="preserve">
<style type="text/css">
	.st0{fill:#028548;}
</style>
<path class="st0" d="M-931.7,397l6.6-6.6c0.8-0.8,0.8-2.1,0-2.8c-0.8-0.8-2.1-0.8-2.8,0l-6.6,6.6l-6.6-6.6c-0.8-0.8-2.1-0.8-2.8,0
	c-0.8,0.8-0.8,2.1,0,2.8l6.6,6.6l-6.6,6.6c-0.8,0.8-0.8,2.1,0,2.8c0.8,0.8,2.1,0.8,2.8,0l6.6-6.6l6.6,6.6c0.8,0.8,2.1,0.8,2.8,0
	c0.7-0.8,0.8-2.1,0-2.8L-931.7,397z"/>
</svg>
